PFUWorkflow • PFUWorkflow
…
<<Machine data path>> is the path to the Machine data excel files containing Eta.fu, Phi.u, and other data.

<<exemplar table path>> is the path to an exemplar table (see below),

<<FU analysis folder>> is the path to a folder containing final-to-useful analyses,

<<Reports source folders>> is a vector of paths to folders containing report sources (usually .Rmd and .Rnw files), and

<<Reports output folder>> is the path to a folder for completed reports.

The plan object is a data frame that provides a list of “targets” and code that will generate the target, in the order the targets will be completed.

plan
#> # A tibble: 51 × 3
#>    target                   command                                dynamic   
#>    <chr>                    <expr_lst>                             <expr_lst>
#>  1 countries                c(c("GHA", "ZAF"))                     NA        
#>  2 alloc_and_eff_couns      unique(c(countries, NULL))             NA        
#>  3 max_year                 2017                                   NA        
#>  4 iea_data_path            "<<IEA extended energy balance path>>" NA        
#>  5 country_concordance_path "<<Country concordance path>>"         NA        
#>  6 phi_constants_path       "<<phi constants path>>"               NA        
#>  7 ceda_data_folder         "<<CEDA temperature data path>>"       NA        
#>  8 machine_data_path        "<<Machine data path>>"                NA        
#>  9 exemplar_table_path      "<<exemplar table path>>"              NA        
#> 10 fu_analysis_folder       "<<FU analysis folder>>"               NA        
#> # … with 41 more rows
…
