SEAPSUTWorkflow • SEAPSUTWorkflow
…
<<CEDA temperature data path>> is the path to CEDA cru_cy temperature data downloaded through CEDATools,

<<exemplar table path>> is the path to an exemplar table (see below),

<<FU analysis folder>> is the path to a folder containing final-to-useful analyses,

<<Reports source folders>> is a vector of paths to folders containing report sources (usually .Rmd and .Rnw files), and

<<Reports output folder>> is the path to a folder for completed reports.

The plan object is a data frame that provides a list of “targets” and code that will generate the target, in the order the targets will be completed.

plan
#> # A tibble: 29 x 3
#>    target                 command                                      dynamic  
#>    <chr>                  <expr_lst>                                   <expr_ls>
#>  1 countries              c(c("GHA", "ZAF"))                         … NA       
#>  2 alloc_and_eff_couns    unique(c(countries, NULL))                 … NA       
#>  3 max_year               2017                                       … NA       
#>  4 iea_data_path          "<<IEA extended energy balance path>>"     … NA       
#>  5 ceda_data_folder       "<<CEDA temperature data path>>"           … NA       
#>  6 exemplar_table_path    "<<exemplar table path>>"                  … NA       
#>  7 fu_analysis_folder     "<<FU analysis folder>>"                   … NA       
#>  8 reports_source_folders "<<Reports source folders>>"               … NA       
#>  9 reports_dest_folder    "<<Reports output folder>>"                … NA       
#> 10 AllIEAData             iea_data_path %>% IEATools::load_tidy_iea_d… NA       
#> # … with 19 more rows
…
