Create a drake plan for societal exergy analysis — get_plan • SEAPSUTWorkflow
…
drakepkg

Workflows as R packages

    Examples

get_plan(countries = c("GHA", "ZAF"),
         max_year = 1999,
         iea_data_path = "iea_path",
         exemplar_table_path = "exemplar_path",
         fu_analysis_folder = "fu_folder",
         reports_source_folders = "reports_source_folders",
         reports_dest_folder = "reports_dest_folder")

#> # A tibble: 22 x 3
#>    target          command                                      dynamic         
#>    <chr>           <expr_lst>                                   <expr_lst>      
#>  1 countries       c(c("GHA", "ZAF"))                         … NA             …
#>  2 alloc_and_eff_… unique(c(countries, NULL))                 … NA             …
#>  3 max_year        1999                                       … NA             …
#>  4 iea_data_path   "iea_path"                                 … NA             …
#>  5 exemplar_table… "exemplar_path"                            … NA             …
#>  6 fu_analysis_fo… "fu_folder"                                … NA             …
#>  7 reports_source… "reports_source_folders"                   … NA             …
#>  8 reports_dest_f… "reports_dest_folder"                      … NA             …
#>  9 AllIEAData      iea_data_path %>% IEATools::load_tidy_iea_d… NA             …
#> 10 IEAData         AllIEAData %>% extract_country_data(countri… map(alloc_and_e…
#> # … with 12 more rows
…
