Read an exemplar table from an Excel file — load_exemplar_table • PFUWorkflow
…
    Value

    an exemplar table

    Details

    This function gathers (actually, tidyr::pivot_longer()) years into a Year column.
It also

    Examples

load_exemplar_table()
#> # A tibble: 9,272 × 6
#>    Aggregation Region.code Exemplar.country Country Year  Prev.names
#>    <chr>       <chr>       <chr>            <chr>   <chr> <chr>     
#>  1 Restofworld EUR         ESP              ALB     1960  ALB       
#>  2 Restofworld EUR         ESP              ALB     1961  ALB       
#>  3 Restofworld EUR         ESP              ALB     1962  ALB       
#>  4 Restofworld EUR         ESP              ALB     1963  ALB       
#>  5 Restofworld EUR         ESP              ALB     1964  ALB       
#>  6 Restofworld EUR         ESP              ALB     1965  ALB       
#>  7 Restofworld EUR         ESP              ALB     1966  ALB       
#>  8 Restofworld EUR         ESP              ALB     1967  ALB       
#>  9 Restofworld EUR         ESP              ALB     1968  ALB       
#> 10 Restofworld EUR         ESP              ALB     1969  ALB       
#> # … with 9,262 more rows
…
