Create a data frame containing machine Eta.fu and Phi.u values. — read_all_eta_files • SEAPSUTWorkflow
…
    Examples

read_all_eta_files(eta_fin_paths = sample_machine_workbook_path())

#> # A tibble: 108 × 9
#>    Country Energy.type Last.stage Method Machine       Eu.product Quantity  Year
#>    <chr>   <chr>       <chr>      <chr>  <chr>         <chr>      <chr>    <dbl>
#>  1 GBR     E           Final      PCM    Industrial e… MD         eta.fu    1960
#>  2 GBR     E           Final      PCM    Industrial e… MD         eta.fu    1961
#>  3 GBR     E           Final      PCM    Industrial e… MD         eta.fu    1962
#>  4 GBR     E           Final      PCM    Industrial e… MD         eta.fu    1963
#>  5 GBR     E           Final      PCM    Industrial e… MD         eta.fu    1964
#>  6 GBR     E           Final      PCM    Industrial e… MD         eta.fu    1965
#>  7 GBR     E           Final      PCM    Industrial e… MD         eta.fu    1966
#>  8 GBR     E           Final      PCM    Industrial e… MD         eta.fu    1967
#>  9 GBR     E           Final      PCM    Industrial e… MD         eta.fu    1968
#> 10 GBR     E           Final      PCM    Industrial e… MD         eta.fu    1969
#> # … with 98 more rows, and 1 more variable: .values <dbl>
…
